@startuml lapr4_uc1.png
skinparam monochrome true
hide circle
hide empty fields
hide empty methods

(LAPR4 Project) as (Project)

actor "Team Member" as Member
actor Student
actor Teacher
actor "Agile Coach" as Coach
actor Reviewer
actor "Core/CRM Reviewer" as CoreRev
actor "IPC Reviewer" as IPCRev
actor "Lang Reviewer" as LangRev
actor Supervisor
actor "Product Owner" as Owner
actor Developer
actor "Area Leader" as Leader
actor "Scrum Master" as Master
'actor "Red Group Member" as RedMember
'actor "Green Group Member" as GreeMember
'actor "Blue Group Member" as BlueMember

Member <|-- Teacher
Teacher <|-- Coach
Teacher <|-- Reviewer
Reviewer <|-- CoreRev
Reviewer <|-- IPCRev
Reviewer <|-- LangRev
CoreRev <|-- Supervisor
Teacher <|-- Owner
  
Member <|-- Student
Student <|-- Developer
Developer <|-- Leader
Leader <|-- Master

Teacher -> (Project) 
(Project) <- Student

' note "Team=PL Class" as N1
' Member .. N1
 
note "Supervises the Team\nTeacher of EAPLI" as N2
Supervisor .. N2

note "Technical Support and Review" as N3
Reviewer .. N3

note "Teacher of SCOMP or RCOMP" as N31
IPCRev .. N31

note "Teacher of LPROG" as N32
LangRev .. N32

note "General questions and\nrequirements clarification\nATB (Alexandre Bragança)" as N4
Owner .. N4

note "Scrum tutoring\nTeacher of the Management Module" as N5
Coach .. N5


@enduml